Project 1: Exploratory Data Analysis
…
3. Wrangling (40 pts)

Use all six core dplyr functions in the service of generating summary statistics (18 pts)

Use mutate at least once to generate a variable that is a function of at least one other variable

# six dplyr added new numeric column averaging scrobble per
# listener
merged <- merged %>% mutate(scrobble_per_listener = scrobbles_lastfm/listeners_lastfm)
# alphabetic numeric values of artists
merged %>% group_by(artist) %>% select_if(is.numeric) %>% arrange(artist)

## # A tibble: 2,247 x 5
## # Groups:   artist [1,047]
##    artist             year listeners_lastfm scrobbles_lastfm scrobble_per_liste~
##    <chr>             <dbl>            <dbl>            <dbl>               <dbl>
##  1 21 Savage          2019           235498          7678887               32.6 
##  2 5th Dimension      1969                0                0              NaN   
##  3 5th Dimension      1969                0                0              NaN   
##  4 5th Dimension      1967                0                0              NaN   
##  5 5th Dimension      1967                0                0              NaN   
##  6 5th Dimension      1967                0                0              NaN   
##  7 5th Dimension      1967                0                0              NaN   
##  8 A Flock Of Seagu~  1982           621037          4914361                7.91
##  9 AC/DC              2009          2691018        135355015               50.3 
## 10 Adele              2016          2856839        128162302               44.9 
## # ... with 2,237 more rows

# list of all artists in alphabetical order
merged %>% group_by(artist) %>% select(artist) %>% arrange(artist)

## # A tibble: 2,247 x 1
## # Groups:   artist [1,047]
##    artist             
##    <chr>              
##  1 21 Savage          
##  2 5th Dimension      
##  3 5th Dimension      
##  4 5th Dimension      
##  5 5th Dimension      
##  6 5th Dimension      
##  7 5th Dimension      
##  8 A Flock Of Seagulls
##  9 AC/DC              
## 10 Adele              
## # ... with 2,237 more rows
…
